/*
IRAN Sans-serif fonts are considered a proprietary software. To gain information about the laws regarding the use of these fonts, please visit www.fontiran.com
--------------------------------------------------------------------------------------
This set of fonts are used in this project under the license: (EATK7)
--------------------------------------------------------------------------------------
*/
